<?xml version="1.0" encoding="UTF-8" standalone="no"?>
<svg
   style="enable-background:new"
   height="512"
   viewBox="0 0 512.40002 512"
   width="512.4"
   version="1.1"
   id="svg35"
   sodipodi:docname="logo.svg"
   inkscape:version="1.1.2 (0a00cf5339, 2022-02-04)"
   xmlns:inkscape="http://www.inkscape.org/namespaces/inkscape"
   xmlns:sodipodi="http://sodipodi.sourceforge.net/DTD/sodipodi-0.dtd"
   xmlns="http://www.w3.org/2000/svg"
   xmlns:svg="http://www.w3.org/2000/svg">
  <sodipodi:namedview
     id="namedview37"
     pagecolor="#ffffff"
     bordercolor="#666666"
     borderopacity="1.0"
     inkscape:pageshadow="2"
     inkscape:pageopacity="0.0"
     inkscape:pagecheckerboard="0"
     showgrid="false"
     inkscape:snap-bbox="true"
     inkscape:snap-page="true"
     inkscape:zoom="1.2254795"
     inkscape:cx="143.20925"
     inkscape:cy="158.71339"
     inkscape:window-width="2494"
     inkscape:window-height="1376"
     inkscape:window-x="1986"
     inkscape:window-y="27"
     inkscape:window-maximized="1"
     inkscape:current-layer="g22" />
  <defs
     id="defs7">
    <rect
       x="139.63384"
       y="66.413487"
       width="268.2725"
       height="133.9315"
       id="rect6289" />
    <linearGradient
       id="a"
       y2="494"
       gradientUnits="userSpaceOnUse"
       x2="256"
       gradientTransform="matrix(1,0,0,0.51466723,-0.38415164,-8.1507721)"
       y1="18"
       x1="256">
      <stop
         style="stop-color:#eaeaea"
         offset="0"
         id="stop2" />
      <stop
         style="stop-color:#f4f4f4"
         offset="1"
         id="stop4" />
    </linearGradient>
    <clipPath
       id="clipPath198"
       clipPathUnits="userSpaceOnUse">
      <path
         id="path196"
         d="M 0,2500 H 2500 V 0 H 0 Z"
         inkscape:connector-curvature="0" />
    </clipPath>
    <clipPath
       id="clipPath186"
       clipPathUnits="userSpaceOnUse">
      <path
         id="path184"
         d="M 0,2500 H 2500 V 0 H 0 Z"
         inkscape:connector-curvature="0" />
    </clipPath>
    <clipPath
       id="clipPath174"
       clipPathUnits="userSpaceOnUse">
      <path
         id="path172"
         d="M 0,2500 H 2500 V 0 H 0 Z"
         inkscape:connector-curvature="0" />
    </clipPath>
    <clipPath
       id="clipPath162"
       clipPathUnits="userSpaceOnUse">
      <path
         id="path160"
         d="M 0,2500 H 2500 V 0 H 0 Z"
         inkscape:connector-curvature="0" />
    </clipPath>
    <clipPath
       id="clipPath138"
       clipPathUnits="userSpaceOnUse">
      <path
         id="path136"
         d="M 0,2500 H 2500 V 0 H 0 Z"
         inkscape:connector-curvature="0" />
    </clipPath>
    <clipPath
       id="clipPath126"
       clipPathUnits="userSpaceOnUse">
      <path
         id="path124"
         d="M 0,2500 H 2500 V 0 H 0 Z"
         inkscape:connector-curvature="0" />
    </clipPath>
    <clipPath
       id="clipPath114"
       clipPathUnits="userSpaceOnUse">
      <path
         id="path112"
         d="M 0,2500 H 2500 V 0 H 0 Z"
         inkscape:connector-curvature="0" />
    </clipPath>
    <clipPath
       id="clipPath102"
       clipPathUnits="userSpaceOnUse">
      <path
         id="path100"
         d="M 0,2500 H 2500 V 0 H 0 Z"
         inkscape:connector-curvature="0" />
    </clipPath>
    <clipPath
       id="clipPath90"
       clipPathUnits="userSpaceOnUse">
      <path
         id="path88"
         d="M 0,2500 H 2500 V 0 H 0 Z"
         inkscape:connector-curvature="0" />
    </clipPath>
    <clipPath
       id="clipPath78"
       clipPathUnits="userSpaceOnUse">
      <path
         id="path76"
         d="M 0,2500 H 2500 V 0 H 0 Z"
         inkscape:connector-curvature="0" />
    </clipPath>
    <clipPath
       id="clipPath66"
       clipPathUnits="userSpaceOnUse">
      <path
         id="path64"
         d="M 0,2500 H 2500 V 0 H 0 Z"
         inkscape:connector-curvature="0" />
    </clipPath>
    <clipPath
       id="clipPath54"
       clipPathUnits="userSpaceOnUse">
      <path
         id="path52"
         d="M 0,2500 H 2500 V 0 H 0 Z"
         inkscape:connector-curvature="0" />
    </clipPath>
    <clipPath
       id="clipPath42"
       clipPathUnits="userSpaceOnUse">
      <path
         id="path40"
         d="M 0,2500 H 2500 V 0 H 0 Z"
         inkscape:connector-curvature="0" />
    </clipPath>
    <clipPath
       id="clipPath30"
       clipPathUnits="userSpaceOnUse">
      <path
         id="path28"
         d="M 0,2500 H 2500 V 0 H 0 Z"
         inkscape:connector-curvature="0" />
    </clipPath>
    <clipPath
       id="clipPath18"
       clipPathUnits="userSpaceOnUse">
      <path
         id="path16"
         d="M 0,2500 H 2500 V 0 H 0 Z"
         inkscape:connector-curvature="0" />
    </clipPath>
  </defs>
  <path
     d="m-208.3 605.6c-7.842 0-14.55 5.029-17.32 12.19-0.0612-0.00067-0.1208 0-0.1823 0-7.088 0-12.83 6.002-12.83 13.41 0 7.404 5.746 13.41 12.83 13.41h17.5 16.33c5.155 0 9.333-4.365 9.333-9.75 0-4.543-2.974-8.363-7-9.445 0.001-0.1029 0-0.2015 0-0.3047 0-10.77-8.357-19.5-18.67-19.5z"
     style="stroke-width:4;color:#000000;stroke:#ccc;enable-background:accumulate;display:none;fill:#fff"
     id="path19" />
  <path
     style="stroke-width:4;color:#000000;stroke:#ccc;enable-background:accumulate;display:none;fill:none"
     d="m288.9 828.1c-6.349 0-11.78 4.072-14.02 9.867-0.0496-0.00055-0.0978 0-0.1476 0-5.738 0-10.39 4.86-10.39 10.85 0 5.995 4.652 10.85 10.39 10.85h14.17 13.22c4.173 0 7.557-3.534 7.557-7.894 0-3.678-2.408-6.771-5.667-7.647 0.001-0.0833 0-0.1632 0-0.2467 0-8.719-6.766-15.79-15.11-15.79z"
     id="path21" />
  <g
     style="display:none"
     transform="translate(0 -558.4)"
     id="g33">
    <path
       d="m166.1 576.4h179.9c145.3 0 166.1 20.74 166.1 165.9v144.2c0 145.2-20.76 165.9-166.1 165.9h-179.9c-145.3 0-166.1-20-166.1-165.5v-144.2c0-145.2 20.76-165.9 166.1-165.9z"
       style="stroke:#00f;fill:#00f;display:inline;fill-opacity:.08118"
       id="path23" />
    <circle
       style="stroke-width:.8333;fill-opacity:.08118;color:#000000;stroke:#00f;enable-background:accumulate;display:inline;fill:#00f"
       cx="256"
       transform="matrix(1.2 0 0 1.2 -51.2 528.8)"
       cy="238"
       r="120"
       id="circle25" />
    <rect
       style="stroke-linejoin:round;fill-opacity:.08118;color:#000000;stroke:#00f;stroke-linecap:round;enable-background:accumulate;display:inline;fill:#00f"
       height="272"
       width="272"
       y="678.4"
       x="120"
       id="rect27" />
    <rect
       style="stroke-linejoin:round;fill-opacity:.08118;color:#000000;stroke:#00f;stroke-linecap:round;enable-background:accumulate;display:inline;fill:#00f"
       height="240"
       width="304"
       y="694.4"
       x="104"
       id="rect29" />
    <rect
       style="stroke-linejoin:round;fill-opacity:.08118;color:#000000;stroke:#00f;stroke-linecap:round;enable-background:accumulate;display:inline;fill:#00f"
       height="304"
       width="240"
       y="662.4"
       x="136"
       id="rect31" />
  </g>
  <g
     id="g12"
     transform="matrix(0.40752848,0,0,-0.39797703,-257.05092,755.75788)">
    <g
       clip-path="url(#clipPath18)"
       id="g14">
      <g
         transform="translate(1552.1523,1305.5713)"
         id="g20">
        <path
           id="path22"
           style="fill:#f15a24;fill-opacity:1;fill-rule:nonzero;stroke:none"
           d="M 0,0 C 0,0 -103.01,35.324 -264.107,34.934 -425.203,35.324 -528.123,0 -528.123,0 -568.682,-685.026 -304.072,-685.924 -264.15,-682.204 -224.207,-685.924 40.559,-685.026 0,0"
           inkscape:connector-curvature="0" />
      </g>
    </g>
  </g>
  <g
     id="g24"
     transform="matrix(0.40752848,0,0,-0.39797703,-257.05092,755.75788)">
    <g
       clip-path="url(#clipPath30)"
       id="g26">
      <g
         transform="translate(1552.1523,1304.6353)"
         id="g32">
        <path
           id="path34"
           style="fill:#db481b;fill-opacity:1;fill-rule:nonzero;stroke:none"
           d="m 0,0 c 0,0 -103.01,35.365 -264.107,35.365 h -0.045 v -718 h 0.002 C -224.207,-685.635 40.559,-685.027 0,0"
           inkscape:connector-curvature="0" />
      </g>
    </g>
  </g>
  <g
     id="g156"
     transform="matrix(0.40752848,0,0,-0.39797703,-257.05092,755.75788)">
    <g
       clip-path="url(#clipPath162)"
       id="g158">
      <g
         transform="translate(1135.0835,1245.6855)"
         id="g164">
        <path
           id="path166"
           style="fill:#f15a24;fill-opacity:1;fill-rule:nonzero;stroke:none"
           d="m 0,0 c 13.717,-18.071 32.466,-29.909 52.424,-34.894 -25.706,-27.072 -57.765,-55.744 -94.218,-83.414 -109.488,-83.109 -217.07,-125.682 -240.291,-95.09 -23.221,30.59 46.712,122.763 156.201,205.872 36.725,27.877 73.23,51.183 106.415,68.708 C -20.347,40.214 -14.008,18.455 0,0"
           inkscape:connector-curvature="0" />
      </g>
    </g>
  </g>
  <g
     id="g168"
     transform="matrix(0.40752848,0,0,-0.39797703,-257.05092,755.75788)">
    <g
       clip-path="url(#clipPath174)"
       id="g170">
      <g
         transform="translate(1234.6665,1176)"
         id="g176">
        <path
           id="path178"
           style="fill:#333333;fill-opacity:1;fill-rule:nonzero;stroke:none"
           d="m 0,0 c 0,-28.719 -23.281,-52 -52,-52 -28.719,0 -52,23.281 -52,52 0,28.719 23.281,52 52,52 C -23.281,52 0,28.719 0,0"
           inkscape:connector-curvature="0" />
      </g>
    </g>
  </g>
  <g
     id="g180"
     transform="matrix(0.40752848,0,0,-0.39797703,-257.05092,755.75788)">
    <g
       clip-path="url(#clipPath186)"
       id="g182">
      <g
         transform="translate(1177.667,1217)"
         id="g188">
        <path
           id="path190"
           style="fill:#1a1a1a;fill-opacity:1;fill-rule:nonzero;stroke:none"
           d="M 0,0 C 28.719,0 52,-23.281 52,-52 52,-57.538 51.126,-62.869 49.522,-67.875 54.267,-60.032 57,-50.836 57,-41 57,-12.281 33.719,11 5,11 -18.181,11 -37.811,-4.172 -44.523,-25.125 -35.414,-10.066 -18.883,0 0,0"
           inkscape:connector-curvature="0" />
      </g>
    </g>
  </g>
  <g
     id="g192"
     transform="matrix(0.40752848,0,0,-0.39797703,-257.05092,755.75788)">
    <g
       clip-path="url(#clipPath198)"
       id="g194">
      <g
         transform="translate(1168.0864,1195.4727)"
         id="g200">
        <path
           id="path202"
           style="fill:#ffffff;fill-opacity:1;fill-rule:nonzero;stroke:none"
           d="m 0,0 c 1.417,-2.373 2.805,-4.698 4.189,-7.018 -9.654,-6.835 -9.584,-21.162 0.015,-28.136 -1.394,-2.342 -2.794,-4.693 -4.23,-7.105 -0.296,0.163 -0.548,0.27 -0.764,0.426 -4.666,3.399 -7.866,7.848 -9.582,13.366 -0.193,0.621 -0.181,1.056 0.338,1.583 3.279,3.33 3.243,8.254 0.018,11.623 -0.273,0.285 -0.487,0.878 -0.387,1.232 1.619,5.716 4.92,10.262 9.723,13.735 0.114,0.083 0.236,0.155 0.361,0.22 C -0.259,-0.043 -0.184,-0.041 0,0"
           inkscape:connector-curvature="0" />
      </g>
      <g
         transform="translate(1207.5605,1172.8574)"
         id="g204">
        <path
           id="path206"
           style="fill:#ffffff;fill-opacity:1;fill-rule:nonzero;stroke:none"
           d="m 0,0 c -0.413,-5.444 -2.164,-10.053 -5.317,-14.13 -0.13,-0.167 -0.281,-0.319 -0.397,-0.495 -0.928,-1.414 -1.929,-2.036 -3.875,-1.632 -3.798,0.789 -7.699,-1.967 -8.79,-5.834 -0.217,-0.766 -0.561,-1.076 -1.312,-1.238 -5.484,-1.184 -10.803,-0.735 -15.961,1.495 -0.258,0.111 -0.513,0.234 -0.762,0.366 -0.087,0.046 -0.152,0.134 -0.282,0.253 1.335,2.392 2.671,4.785 4.03,7.22 2.329,-1.013 4.669,-1.568 7.143,-1.564 8.555,0.015 15.654,6.045 16.96,14.5 0.132,0.852 0.415,1.098 1.256,1.079 C -4.918,-0.036 -2.528,0 0,0"
           inkscape:connector-curvature="0" />
      </g>
      <g
         transform="translate(1207.4907,1175.9609)"
         id="g208">
        <path
           id="path210"
           style="fill:#ffffff;fill-opacity:1;fill-rule:nonzero;stroke:none"
           d="m 0,0 h -8.295 c -0.734,5.688 -3.457,10.247 -8.526,13.185 -5.05,2.925 -10.325,3.005 -15.783,0.751 -1.344,2.405 -2.679,4.794 -4.064,7.272 0.371,0.191 0.667,0.366 0.98,0.503 5.254,2.279 10.67,2.771 16.256,1.495 0.632,-0.144 0.911,-0.433 1.087,-1.07 1.234,-4.449 5.598,-6.941 10.064,-5.754 0.594,0.157 0.94,0.07 1.365,-0.381 3.99,-4.236 6.26,-9.253 6.912,-15.018 C 0.027,0.712 0,0.435 0,0"
           inkscape:connector-curvature="0" />
      </g>
      <g
         transform="translate(1202.9321,1148.4443)"
         id="g212">
        <path
           id="path214"
           style="fill:#ffffff;fill-opacity:1;fill-rule:nonzero;stroke:none"
           d="m 0,0 c -0.059,-3.244 -2.703,-5.857 -5.904,-5.836 -3.251,0.022 -5.92,2.748 -5.865,5.991 0.057,3.29 2.73,5.873 6.019,5.815 C -2.536,5.912 0.058,3.219 0,0"
           inkscape:connector-curvature="0" />
      </g>
      <g
         transform="translate(1152.2441,1180.2471)"
         id="g216">
        <path
           id="path218"
           style="fill:#ffffff;fill-opacity:1;fill-rule:nonzero;stroke:none"
           d="m 0,0 c 3.295,0.016 5.937,-2.612 5.924,-5.894 -0.011,-3.237 -2.611,-5.845 -5.849,-5.87 -3.269,-0.024 -5.934,2.631 -5.922,5.902 C -5.836,-2.616 -3.242,-0.016 0,0"
           inkscape:connector-curvature="0" />
      </g>
      <g
         transform="translate(1191.1616,1200.3154)"
         id="g220">
        <path
           id="path222"
           style="fill:#ffffff;fill-opacity:1;fill-rule:nonzero;stroke:none"
           d="M 0,0 C 0.068,3.249 2.706,5.817 5.937,5.782 9.237,5.745 11.831,3.087 11.771,-0.199 11.712,-3.469 8.976,-6.098 5.737,-5.995 2.504,-5.893 -0.067,-3.206 0,0"
           inkscape:connector-curvature="0" />
      </g>
    </g>
  </g>
  <rect
     style="color:#000000;fill:#00de00;fill-opacity:1;stroke-width:0.691603;enable-background:accumulate"
     height="244.89742"
     width="512"
     y="0"
     x="0.40004539"
     id="rect9" />
  <g
     id="g22"
     transform="matrix(0.15999882,0,0,0.15999882,224.73127,95.003414)">
    <text
       xml:space="preserve"
       style="font-style:normal;font-variant:normal;font-weight:600;font-stretch:normal;font-size:833.339px;line-height:1.25;font-family:FreeSans;-inkscape-font-specification:'FreeSans, Semi-Bold';font-variant-ligatures:normal;font-variant-caps:normal;font-variant-numeric:normal;font-variant-east-asian:normal;letter-spacing:0px;word-spacing:0px;fill:#000000;fill-opacity:1;stroke:none;stroke-width:6.25005"
       x="-514.15546"
       y="539.59039"
       id="text1912"><tspan
         sodipodi:role="line"
         id="tspan26255"
         x="-514.15546"
         y="539.59039">No!</tspan></text>
  </g>
</svg>
